loss,params,iteration,estimators,train_time
0.15201814127795887,"{'n_estimators': 900, 'max_depth': 10, 'min_samples_leaf': 3, 'min_samples_split': 7, 'max_leaf_nodes': 10, 'max_samples': None, 'max_features': 22}",1,4,834.9790318
0.15042683069667862,"{'n_estimators': 900, 'max_depth': 10, 'min_samples_leaf': 3, 'min_samples_split': 7, 'max_leaf_nodes': 10, 'max_features': 22}",1,4,851.3141103999997
0.15289198111400137,"{'n_estimators': 900, 'max_depth': 10, 'min_samples_leaf': 3, 'min_samples_split': 7, 'max_leaf_nodes': 10, 'max_samples': 0.4788713600412299, 'max_features': 22}",1,4,559.6328732000002
0.1555372776581585,"{'n_estimators': 900, 'max_depth': 8, 'min_samples_leaf': 1, 'min_samples_split': 2, 'max_leaf_nodes': 8, 'max_samples': 0.594745367991973, 'max_features': 22}",2,4,580.9431728000009
0.16935842572617033,"{'n_estimators': 100, 'max_depth': None, 'min_samples_leaf': 4, 'min_samples_split': 2, 'max_leaf_nodes': 5, 'max_samples': 0.4094456267376075, 'max_features': 22}",3,5,55.67955729999994
0.15670727065442536,"{'n_estimators': 700, 'max_depth': None, 'min_samples_leaf': 3, 'min_samples_split': 2, 'max_leaf_nodes': 7, 'max_samples': 0.4113881464079828, 'max_features': 22}",4,4,340.7327609999993
0.15200115877540743,"{'n_estimators': 700, 'max_depth': 7, 'min_samples_leaf': 2, 'min_samples_split': 8, 'max_leaf_nodes': 9, 'max_samples': 0.5980532294367759, 'max_features': 22}",5,4,477.88596119999966
0.1606776410635613,"{'n_estimators': 800, 'max_depth': 10, 'min_samples_leaf': 2, 'min_samples_split': 6, 'max_leaf_nodes': 6, 'max_samples': 0.5603745554046082, 'max_features': 22}",6,6,384.4424521000001
0.15341243433302243,"{'n_estimators': 900, 'max_depth': 10, 'min_samples_leaf': 1, 'min_samples_split': 6, 'max_leaf_nodes': 10, 'max_samples': 0.41014335385841855, 'max_features': 22}",7,4,454.41863690000173
0.15209764421571148,"{'n_estimators': 800, 'max_depth': None, 'min_samples_leaf': 1, 'min_samples_split': 7, 'max_leaf_nodes': 11, 'max_samples': 0.32572922353945893, 'max_features': 22}",8,5,358.938983
0.15391843360438118,"{'n_estimators': 500, 'max_depth': 7, 'min_samples_leaf': 4, 'min_samples_split': 6, 'max_leaf_nodes': 8, 'max_samples': 0.3539248549014521, 'max_features': 22}",9,4,221.42400169999928
0.15604605833989482,"{'n_estimators': 500, 'max_depth': None, 'min_samples_leaf': 2, 'min_samples_split': 8, 'max_leaf_nodes': 8, 'max_samples': 0.4520402980340766, 'max_features': 22}",10,4,246.3362883000009
0.15257576233827563,"{'n_estimators': 100, 'max_depth': 8, 'min_samples_leaf': 2, 'min_samples_split': 5, 'max_leaf_nodes': 11, 'max_samples': 0.3280735397274286, 'max_features': 22}",11,4,53.3023761000004
0.15801528922512098,"{'n_estimators': 600, 'max_depth': None, 'min_samples_leaf': 2, 'min_samples_split': 5, 'max_leaf_nodes': 7, 'max_samples': 0.4530735264988881, 'max_features': 22}",12,4,272.56582029999845
0.1510426650288118,"{'n_estimators': 200, 'max_depth': 7, 'min_samples_leaf': 1, 'min_samples_split': 3, 'max_leaf_nodes': 11, 'max_samples': 0.44055935399645385, 'max_features': 22}",13,4,111.1291923000008
0.15346040121082305,"{'n_estimators': 800, 'max_depth': 7, 'min_samples_leaf': 3, 'min_samples_split': 7, 'max_leaf_nodes': 10, 'max_samples': 0.3767099083803777, 'max_features': 22}",14,4,30475.7799804
0.1560493052342411,"{'n_estimators': 100, 'max_depth': None, 'min_samples_leaf': 2, 'min_samples_split': 6, 'max_leaf_nodes': 11, 'max_samples': 0.4910985825967261, 'max_features': 22}",15,2,71.51985050000076
0.15666158522274065,"{'n_estimators': 500, 'max_depth': None, 'min_samples_leaf': 2, 'min_samples_split': 6, 'max_leaf_nodes': 8, 'max_samples': 0.34383245262932066, 'max_features': 22}",16,6,221.25244399999792
0.16318031657633625,"{'n_estimators': 700, 'max_depth': 7, 'min_samples_leaf': 3, 'min_samples_split': 2, 'max_leaf_nodes': 5, 'max_samples': 0.5281055909601394, 'max_features': 22}",17,2,307.4189903000006
0.15417636152762904,"{'n_estimators': 600, 'max_depth': 10, 'min_samples_leaf': 2, 'min_samples_split': 7, 'max_leaf_nodes': 10, 'max_samples': 0.47381647480739586, 'max_features': 22}",18,5,347.5303325999994
0.15278484509401347,"{'n_estimators': 300, 'max_depth': 7, 'min_samples_leaf': 3, 'min_samples_split': 4, 'max_leaf_nodes': 11, 'max_samples': 0.46056668627164443, 'max_features': 22}",19,2,187.59297330000118
0.15624636394525293,"{'n_estimators': 500, 'max_depth': 8, 'min_samples_leaf': 1, 'min_samples_split': 6, 'max_leaf_nodes': 8, 'max_samples': 0.517189769968511, 'max_features': 22}",20,4,281.89417279999907
0.15452900586054474,"{'n_estimators': 200, 'max_depth': 7, 'min_samples_leaf': 1, 'min_samples_split': 3, 'max_leaf_nodes': 9, 'max_samples': 0.5514853238795042, 'max_features': 22}",21,5,128.32700260000274
0.15328781105729117,"{'n_estimators': 400, 'max_depth': 7, 'min_samples_leaf': 4, 'min_samples_split': 3, 'max_leaf_nodes': 9, 'max_samples': 0.300966825865443, 'max_features': 22}",22,4,174.8867010000031
0.1539335637489192,"{'n_estimators': 200, 'max_depth': 7, 'min_samples_leaf': 1, 'min_samples_split': 8, 'max_leaf_nodes': 9, 'max_samples': 0.4278371983362217, 'max_features': 22}",23,4,126.06575449999946
0.1588372390921413,"{'n_estimators': 1000, 'max_depth': 7, 'min_samples_leaf': 1, 'min_samples_split': 3, 'max_leaf_nodes': 6, 'max_samples': 0.3787563888636895, 'max_features': 22}",24,4,408.15003799999977
0.15188169892369363,"{'n_estimators': 200, 'max_depth': 7, 'min_samples_leaf': 4, 'min_samples_split': 8, 'max_leaf_nodes': 9, 'max_samples': 0.5820417479553187, 'max_features': 22}",25,4,137.57840399999986
0.15400199468117348,"{'n_estimators': 200, 'max_depth': 7, 'min_samples_leaf': 4, 'min_samples_split': 3, 'max_leaf_nodes': 9, 'max_samples': 0.572973621164587, 'max_features': 22}",26,4,128.28700239999307
0.15287300450111696,"{'n_estimators': 200, 'max_depth': 7, 'min_samples_leaf': 4, 'min_samples_split': 4, 'max_leaf_nodes': 11, 'max_samples': 0.5076244202496486, 'max_features': 22}",27,2,131.07149519999803
0.1636457095548648,"{'n_estimators': 200, 'max_depth': 7, 'min_samples_leaf': 4, 'min_samples_split': 8, 'max_leaf_nodes': 5, 'max_samples': 0.4283283567302206, 'max_features': 22}",28,4,110.7733945
0.15466587442955437,"{'n_estimators': 300, 'max_depth': 8, 'min_samples_leaf': 4, 'min_samples_split': 3, 'max_leaf_nodes': 9, 'max_samples': 0.539414225730067, 'max_features': 22}",29,5,214.0207644999973
