loss,params,iteration,estimators,train_time
0.15094619967183687,"{'n_estimators': 700, 'max_depth': 10, 'min_samples_leaf': 1, 'min_samples_split': 4, 'max_leaf_nodes': 10, 'max_samples': None, 'max_features': 21}",1,1,1.0400000064691994e-05
0.15112128598863506,"{'n_estimators': 100, 'max_depth': 7, 'min_samples_leaf': 1, 'min_samples_split': 2, 'max_leaf_nodes': 11, 'max_samples': None, 'max_features': 21}",2,6,9.800000043469481e-06
0.15091240014647878,"{'n_estimators': 700, 'max_depth': 10, 'min_samples_leaf': 1, 'min_samples_split': 4, 'max_leaf_nodes': 10, 'max_samples': None, 'max_features': 21}",1,1,1.5600000551785342e-05
0.14912886498832656,"{'n_estimators': 100, 'max_depth': 7, 'min_samples_leaf': 1, 'min_samples_split': 2, 'max_leaf_nodes': 11, 'max_samples': None, 'max_features': 21}",2,1,1.0400000064691994e-05
0.15858429547237318,"{'n_estimators': 100, 'max_depth': None, 'min_samples_leaf': 4, 'min_samples_split': 2, 'max_leaf_nodes': 8, 'max_samples': None, 'max_features': 21}",3,1,8.600000001024455e-06
0.1645796255665234,"{'n_estimators': 100, 'max_depth': 10, 'min_samples_leaf': 4, 'min_samples_split': 4, 'max_leaf_nodes': 5, 'max_samples': None, 'max_features': 21}",4,1,9.899999895424116e-06
0.16701274037823155,"{'n_estimators': 300, 'max_depth': 10, 'min_samples_leaf': 1, 'min_samples_split': 6, 'max_leaf_nodes': 5, 'max_samples': None, 'max_features': 21}",5,1,9.899999895424116e-06
0.1587675133076345,"{'n_estimators': 900, 'max_depth': None, 'min_samples_leaf': 1, 'min_samples_split': 7, 'max_leaf_nodes': 7, 'max_samples': None, 'max_features': 21}",6,1,8.800000614428427e-06
0.1486938619133391,"{'n_estimators': 100, 'max_depth': None, 'min_samples_leaf': 1, 'min_samples_split': 6, 'max_leaf_nodes': 11, 'max_samples': None, 'max_features': 21}",7,6,2.6499999876250513e-05
0.14849875853069916,"{'n_estimators': 700, 'max_depth': 10, 'min_samples_leaf': 1, 'min_samples_split': 7, 'max_leaf_nodes': 11, 'max_samples': None, 'max_features': 21}",8,1,1.700000029813964e-05
0.15073549650826223,"{'n_estimators': 900, 'max_depth': 8, 'min_samples_leaf': 4, 'min_samples_split': 6, 'max_leaf_nodes': 10, 'max_samples': None, 'max_features': 21}",9,1,9.100000170292333e-06
0.15168488113537326,"{'n_estimators': 900, 'max_depth': None, 'min_samples_leaf': 2, 'min_samples_split': 8, 'max_leaf_nodes': 10, 'max_samples': None, 'max_features': 21}",10,1,8.499999239575118e-06
0.15151925284902268,"{'n_estimators': 100, 'max_depth': None, 'min_samples_leaf': 2, 'min_samples_split': 5, 'max_leaf_nodes': 10, 'max_samples': None, 'max_features': 21}",11,1,1.720000000204891e-05
0.15115602733750189,"{'n_estimators': 500, 'max_depth': None, 'min_samples_leaf': 4, 'min_samples_split': 7, 'max_leaf_nodes': 10, 'max_samples': None, 'max_features': 21}",12,1,8.89999955688836e-06
0.15374844297339585,"{'n_estimators': 300, 'max_depth': 7, 'min_samples_leaf': 1, 'min_samples_split': 3, 'max_leaf_nodes': 9, 'max_samples': None, 'max_features': 21}",13,1,9.60000033956021e-06
0.14937644518506255,"{'n_estimators': 700, 'max_depth': None, 'min_samples_leaf': 3, 'min_samples_split': 6, 'max_leaf_nodes': 11, 'max_samples': None, 'max_features': 21}",14,1,1.720000000204891e-05
0.1499035745173546,"{'n_estimators': 100, 'max_depth': None, 'min_samples_leaf': 2, 'min_samples_split': 6, 'max_leaf_nodes': 11, 'max_samples': None, 'max_features': 21}",15,1,9.200000022246968e-06
0.1481658172877781,"{'n_estimators': 900, 'max_depth': None, 'min_samples_leaf': 2, 'min_samples_split': 6, 'max_leaf_nodes': 11, 'max_samples': None, 'max_features': 21}",16,1,9.60000033956021e-06
0.15437897391485822,"{'n_estimators': 100, 'max_depth': None, 'min_samples_leaf': 1, 'min_samples_split': 4, 'max_leaf_nodes': 9, 'max_samples': None, 'max_features': 21}",17,1,2.6400000024295878e-05
0.15133045039830795,"{'n_estimators': 300, 'max_depth': 10, 'min_samples_leaf': 1, 'min_samples_split': 3, 'max_leaf_nodes': 10, 'max_samples': None, 'max_features': 21}",18,1,9.300000783696305e-06
0.16223723090941644,"{'n_estimators': 700, 'max_depth': 8, 'min_samples_leaf': 3, 'min_samples_split': 7, 'max_leaf_nodes': 6, 'max_samples': None, 'max_features': 21}",19,1,1.7800000023271423e-05
0.1562244041221943,"{'n_estimators': 900, 'max_depth': 8, 'min_samples_leaf': 2, 'min_samples_split': 7, 'max_leaf_nodes': 8, 'max_samples': None, 'max_features': 21}",20,1,9.399999726156238e-06
0.14929497081899157,"{'n_estimators': 500, 'max_depth': 10, 'min_samples_leaf': 2, 'min_samples_split': 8, 'max_leaf_nodes': 11, 'max_samples': None, 'max_features': 21}",21,1,1.7499999557912815e-05
0.1615234348107042,"{'n_estimators': 700, 'max_depth': 10, 'min_samples_leaf': 2, 'min_samples_split': 5, 'max_leaf_nodes': 6, 'max_samples': None, 'max_features': 21}",22,1,1.0100000508828089e-05
0.1591122207118556,"{'n_estimators': 900, 'max_depth': 10, 'min_samples_leaf': 3, 'min_samples_split': 7, 'max_leaf_nodes': 7, 'max_samples': None, 'max_features': 21}",23,1,1.700000029813964e-05
0.14934068242196796,"{'n_estimators': 900, 'max_depth': 7, 'min_samples_leaf': 2, 'min_samples_split': 7, 'max_leaf_nodes': 11, 'max_samples': None, 'max_features': 21}",24,1,9.399999726156238e-06
0.14879690536427392,"{'n_estimators': 700, 'max_depth': 8, 'min_samples_leaf': 3, 'min_samples_split': 8, 'max_leaf_nodes': 11, 'max_samples': None, 'max_features': 21}",25,1,9.200000022246968e-06
0.15309939392463334,"{'n_estimators': 500, 'max_depth': 10, 'min_samples_leaf': 2, 'min_samples_split': 3, 'max_leaf_nodes': 9, 'max_samples': None, 'max_features': 21}",26,1,1.6699999832781032e-05
0.14860365909841167,"{'n_estimators': 700, 'max_depth': 10, 'min_samples_leaf': 2, 'min_samples_split': 6, 'max_leaf_nodes': 11, 'max_samples': None, 'max_features': 21}",27,1,9.000000318337698e-06
0.16206836593382445,"{'n_estimators': 900, 'max_depth': 8, 'min_samples_leaf': 3, 'min_samples_split': 5, 'max_leaf_nodes': 6, 'max_samples': None, 'max_features': 21}",28,1,1.7600000319362152e-05
0.16543468192643607,"{'n_estimators': 700, 'max_depth': 7, 'min_samples_leaf': 1, 'min_samples_split': 6, 'max_leaf_nodes': 5, 'max_samples': None, 'max_features': 21}",29,1,1.6999999388644937e-05
0.15886348644969328,"{'n_estimators': 700, 'max_depth': 10, 'min_samples_leaf': 4, 'min_samples_split': 2, 'max_leaf_nodes': 7, 'max_samples': None, 'max_features': 21}",30,1,9.699999282020144e-06
0.15519570734354649,"{'n_estimators': 300, 'max_depth': None, 'min_samples_leaf': 1, 'min_samples_split': 7, 'max_leaf_nodes': 8, 'max_samples': None, 'max_features': 21}",31,1,9.899999895424116e-06
0.14939644898578486,"{'n_estimators': 900, 'max_depth': 7, 'min_samples_leaf': 2, 'min_samples_split': 8, 'max_leaf_nodes': 11, 'max_samples': None, 'max_features': 21}",32,1,2.3100000362319406e-05
0.14897794771988104,"{'n_estimators': 500, 'max_depth': 10, 'min_samples_leaf': 1, 'min_samples_split': 4, 'max_leaf_nodes': 11, 'max_samples': None, 'max_features': 21}",33,1,2.209999911428895e-05
0.14883488340238216,"{'n_estimators': 700, 'max_depth': None, 'min_samples_leaf': 4, 'min_samples_split': 2, 'max_leaf_nodes': 11, 'max_samples': None, 'max_features': 21}",34,1,9.100000170292333e-06
0.1657488132294208,"{'n_estimators': 900, 'max_depth': 10, 'min_samples_leaf': 1, 'min_samples_split': 6, 'max_leaf_nodes': 5, 'max_samples': None, 'max_features': 21}",35,1,1.0200000360782724e-05
0.15647723730638807,"{'n_estimators': 700, 'max_depth': 7, 'min_samples_leaf': 2, 'min_samples_split': 4, 'max_leaf_nodes': 8, 'max_samples': None, 'max_features': 21}",36,1,9.200000022246968e-06
0.15937912818820188,"{'n_estimators': 300, 'max_depth': None, 'min_samples_leaf': 1, 'min_samples_split': 7, 'max_leaf_nodes': 7, 'max_samples': None, 'max_features': 21}",37,1,1.8000000636675395e-05
0.14909322161131033,"{'n_estimators': 900, 'max_depth': 10, 'min_samples_leaf': 4, 'min_samples_split': 2, 'max_leaf_nodes': 11, 'max_samples': None, 'max_features': 21}",38,1,9.299999874201603e-06
0.1654762150166621,"{'n_estimators': 500, 'max_depth': None, 'min_samples_leaf': 1, 'min_samples_split': 5, 'max_leaf_nodes': 5, 'max_samples': None, 'max_features': 21}",39,1,1.7100000150094274e-05
0.14836234003824122,"{'n_estimators': 900, 'max_depth': 8, 'min_samples_leaf': 2, 'min_samples_split': 6, 'max_leaf_nodes': 11, 'max_samples': None, 'max_features': 21}",40,1,9.999999747378752e-06
0.16204175610342086,"{'n_estimators': 900, 'max_depth': 8, 'min_samples_leaf': 2, 'min_samples_split': 6, 'max_leaf_nodes': 6, 'max_samples': None, 'max_features': 21}",41,1,1.7700000171316788e-05
0.15207020633655144,"{'n_estimators': 900, 'max_depth': 8, 'min_samples_leaf': 2, 'min_samples_split': 6, 'max_leaf_nodes': 9, 'max_samples': None, 'max_features': 21}",42,1,9.500000487605575e-06
0.14933105194496232,"{'n_estimators': 900, 'max_depth': 8, 'min_samples_leaf': 2, 'min_samples_split': 6, 'max_leaf_nodes': 11, 'max_samples': None, 'max_features': 21}",43,1,9.299999874201603e-06
0.15600212050899742,"{'n_estimators': 900, 'max_depth': 8, 'min_samples_leaf': 2, 'min_samples_split': 6, 'max_leaf_nodes': 8, 'max_samples': None, 'max_features': 21}",44,1,9.000000318337698e-06
0.14847273236556857,"{'n_estimators': 900, 'max_depth': 8, 'min_samples_leaf': 2, 'min_samples_split': 6, 'max_leaf_nodes': 11, 'max_samples': None, 'max_features': 21}",45,1,1.0200000360782724e-05
0.15885975895101767,"{'n_estimators': 100, 'max_depth': None, 'min_samples_leaf': 2, 'min_samples_split': 3, 'max_leaf_nodes': 7, 'max_samples': None, 'max_features': 21}",46,1,1.7800000023271423e-05
0.15020142951829285,"{'n_estimators': 900, 'max_depth': 8, 'min_samples_leaf': 4, 'min_samples_split': 6, 'max_leaf_nodes': 10, 'max_samples': None, 'max_features': 21}",47,1,1.7299999854003545e-05
0.15311398555646005,"{'n_estimators': 300, 'max_depth': None, 'min_samples_leaf': 2, 'min_samples_split': 4, 'max_leaf_nodes': 9, 'max_samples': None, 'max_features': 21}",48,1,1.0100000508828089e-05
0.14873227770040232,"{'n_estimators': 900, 'max_depth': 8, 'min_samples_leaf': 3, 'min_samples_split': 6, 'max_leaf_nodes': 11, 'max_samples': None, 'max_features': 21}",49,1,1.7299999854003545e-05
0.16501760002835553,"{'n_estimators': 100, 'max_depth': None, 'min_samples_leaf': 2, 'min_samples_split': 2, 'max_leaf_nodes': 5, 'max_samples': None, 'max_features': 21}",50,1,1.7100000150094274e-05
0.14908876453104336,"{'n_estimators': 900, 'max_depth': 7, 'min_samples_leaf': 2, 'min_samples_split': 8, 'max_leaf_nodes': 11, 'max_samples': None, 'max_features': 21}",51,1,1.7800000023271423e-05
0.1627277087155844,"{'n_estimators': 500, 'max_depth': 8, 'min_samples_leaf': 3, 'min_samples_split': 3, 'max_leaf_nodes': 6, 'max_samples': None, 'max_features': 21}",52,1,1.0700001439545304e-05
0.15183906162329996,"{'n_estimators': 300, 'max_depth': None, 'min_samples_leaf': 4, 'min_samples_split': 5, 'max_leaf_nodes': 10, 'max_samples': None, 'max_features': 21}",53,1,1.340000017080456e-05
0.14875895385640514,"{'n_estimators': 900, 'max_depth': 8, 'min_samples_leaf': 2, 'min_samples_split': 6, 'max_leaf_nodes': 11, 'max_samples': None, 'max_features': 21}",54,1,9.299999874201603e-06
0.1548409184482451,"{'n_estimators': 100, 'max_depth': None, 'min_samples_leaf': 2, 'min_samples_split': 6, 'max_leaf_nodes': 8, 'max_samples': None, 'max_features': 21}",55,1,1.5100000382517464e-05
0.15367451646051467,"{'n_estimators': 900, 'max_depth': 7, 'min_samples_leaf': 2, 'min_samples_split': 6, 'max_leaf_nodes': 9, 'max_samples': None, 'max_features': 21}",56,1,1.7700000171316788e-05
0.1589101796715381,"{'n_estimators': 500, 'max_depth': 8, 'min_samples_leaf': 3, 'min_samples_split': 4, 'max_leaf_nodes': 7, 'max_samples': None, 'max_features': 21}",57,1,1.7500000467407517e-05
0.1485151542188241,"{'n_estimators': 900, 'max_depth': None, 'min_samples_leaf': 2, 'min_samples_split': 8, 'max_leaf_nodes': 11, 'max_samples': None, 'max_features': 21}",58,1,9.800000043469481e-06
0.15075561969506313,"{'n_estimators': 100, 'max_depth': 8, 'min_samples_leaf': 4, 'min_samples_split': 3, 'max_leaf_nodes': 10, 'max_samples': None, 'max_features': 21}",59,1,8.900000466383062e-06
0.14860929677434465,"{'n_estimators': 300, 'max_depth': None, 'min_samples_leaf': 2, 'min_samples_split': 5, 'max_leaf_nodes': 11, 'max_samples': None, 'max_features': 21}",60,1,9.499999578110874e-06
0.16222932489799058,"{'n_estimators': 900, 'max_depth': 7, 'min_samples_leaf': 3, 'min_samples_split': 6, 'max_leaf_nodes': 6, 'max_samples': None, 'max_features': 21}",61,1,1.1199999789823778e-05
0.1656275435038228,"{'n_estimators': 900, 'max_depth': None, 'min_samples_leaf': 2, 'min_samples_split': 2, 'max_leaf_nodes': 5, 'max_samples': None, 'max_features': 21}",62,1,2.660000063769985e-05
0.14833936485067434,"{'n_estimators': 500, 'max_depth': 8, 'min_samples_leaf': 2, 'min_samples_split': 6, 'max_leaf_nodes': 11, 'max_samples': None, 'max_features': 21}",63,1,1.6599999071331695e-05
0.1494564869181908,"{'n_estimators': 500, 'max_depth': 8, 'min_samples_leaf': 2, 'min_samples_split': 6, 'max_leaf_nodes': 11, 'max_samples': None, 'max_features': 21}",64,1,1.6400001186411828e-05
0.14851216956685964,"{'n_estimators': 500, 'max_depth': 8, 'min_samples_leaf': 2, 'min_samples_split': 6, 'max_leaf_nodes': 11, 'max_samples': None, 'max_features': 21}",65,1,8.999999408842996e-06
0.1489867690245762,"{'n_estimators': 500, 'max_depth': 8, 'min_samples_leaf': 2, 'min_samples_split': 6, 'max_leaf_nodes': 11, 'max_samples': None, 'max_features': 21}",66,1,9.100000170292333e-06
0.1479524213048754,"{'n_estimators': 500, 'max_depth': 8, 'min_samples_leaf': 2, 'min_samples_split': 6, 'max_leaf_nodes': 11, 'max_samples': None, 'max_features': 21}",67,1,1.0400000974186696e-05
0.1487239074097818,"{'n_estimators': 500, 'max_depth': 8, 'min_samples_leaf': 2, 'min_samples_split': 6, 'max_leaf_nodes': 11, 'max_samples': None, 'max_features': 21}",68,1,9.800000043469481e-06
0.14868989564250623,"{'n_estimators': 500, 'max_depth': 8, 'min_samples_leaf': 2, 'min_samples_split': 6, 'max_leaf_nodes': 11, 'max_samples': None, 'max_features': 21}",69,1,9.999999747378752e-06
0.15713911372603784,"{'n_estimators': 500, 'max_depth': 8, 'min_samples_leaf': 2, 'min_samples_split': 8, 'max_leaf_nodes': 8, 'max_samples': None, 'max_features': 21}",70,1,1.049999991664663e-05
0.1490343510094504,"{'n_estimators': 500, 'max_depth': 8, 'min_samples_leaf': 2, 'min_samples_split': 4, 'max_leaf_nodes': 11, 'max_samples': None, 'max_features': 21}",71,1,2.0199999198666774e-05
0.15889808188224186,"{'n_estimators': 500, 'max_depth': 7, 'min_samples_leaf': 4, 'min_samples_split': 7, 'max_leaf_nodes': 7, 'max_samples': None, 'max_features': 21}",72,1,1.3799999578623101e-05
0.14852417450031696,"{'n_estimators': 500, 'max_depth': None, 'min_samples_leaf': 2, 'min_samples_split': 6, 'max_leaf_nodes': 11, 'max_samples': None, 'max_features': 21}",73,1,1.7500000467407517e-05
0.1537519184347944,"{'n_estimators': 500, 'max_depth': 8, 'min_samples_leaf': 3, 'min_samples_split': 5, 'max_leaf_nodes': 9, 'max_samples': None, 'max_features': 21}",74,1,1.7700000171316788e-05
0.16233926621124328,"{'n_estimators': 500, 'max_depth': 10, 'min_samples_leaf': 1, 'min_samples_split': 3, 'max_leaf_nodes': 6, 'max_samples': None, 'max_features': 21}",75,1,1.7500000467407517e-05
0.16503261614401699,"{'n_estimators': 500, 'max_depth': 8, 'min_samples_leaf': 2, 'min_samples_split': 2, 'max_leaf_nodes': 5, 'max_samples': None, 'max_features': 21}",76,1,1.7400001524947584e-05
0.1512745246530528,"{'n_estimators': 500, 'max_depth': None, 'min_samples_leaf': 2, 'min_samples_split': 6, 'max_leaf_nodes': 10, 'max_samples': None, 'max_features': 21}",77,1,9.20000093174167e-06
0.14873088486281894,"{'n_estimators': 700, 'max_depth': 8, 'min_samples_leaf': 4, 'min_samples_split': 6, 'max_leaf_nodes': 11, 'max_samples': None, 'max_features': 21}",78,1,9.500001397100277e-06
0.14926333350816767,"{'n_estimators': 300, 'max_depth': 7, 'min_samples_leaf': 2, 'min_samples_split': 7, 'max_leaf_nodes': 11, 'max_samples': None, 'max_features': 21}",79,1,9.499999578110874e-06
0.15587344884652743,"{'n_estimators': 500, 'max_depth': None, 'min_samples_leaf': 1, 'min_samples_split': 6, 'max_leaf_nodes': 8, 'max_samples': None, 'max_features': 21}",80,1,1.990000055229757e-05
0.1510448921634634,"{'n_estimators': 100, 'max_depth': 10, 'min_samples_leaf': 2, 'min_samples_split': 8, 'max_leaf_nodes': 11, 'max_samples': None, 'max_features': 21}",81,6,2.4400000256719068e-05
0.1584951273367935,"{'n_estimators': 500, 'max_depth': 8, 'min_samples_leaf': 3, 'min_samples_split': 4, 'max_leaf_nodes': 7, 'max_samples': None, 'max_features': 21}",82,1,1.759999940986745e-05
0.15375049906697125,"{'n_estimators': 700, 'max_depth': None, 'min_samples_leaf': 2, 'min_samples_split': 6, 'max_leaf_nodes': 9, 'max_samples': None, 'max_features': 21}",83,1,1.8300001102034003e-05
0.14900847076063828,"{'n_estimators': 300, 'max_depth': 8, 'min_samples_leaf': 2, 'min_samples_split': 5, 'max_leaf_nodes': 11, 'max_samples': None, 'max_features': 21}",84,1,1.0199999451288022e-05
0.16162861394593353,"{'n_estimators': 500, 'max_depth': 8, 'min_samples_leaf': 4, 'min_samples_split': 3, 'max_leaf_nodes': 6, 'max_samples': None, 'max_features': 21}",85,1,9.399998816661537e-06
0.1509972173227504,"{'n_estimators': 100, 'max_depth': 10, 'min_samples_leaf': 1, 'min_samples_split': 2, 'max_leaf_nodes': 10, 'max_samples': None, 'max_features': 21}",86,1,1.0300000212737359e-05
0.16526259352672235,"{'n_estimators': 500, 'max_depth': 7, 'min_samples_leaf': 2, 'min_samples_split': 6, 'max_leaf_nodes': 5, 'max_samples': None, 'max_features': 21}",87,1,9.699999282020144e-06
0.14842101166330346,"{'n_estimators': 700, 'max_depth': None, 'min_samples_leaf': 2, 'min_samples_split': 6, 'max_leaf_nodes': 11, 'max_samples': None, 'max_features': 21}",88,1,1.1300000551273115e-05
0.1489245821427555,"{'n_estimators': 500, 'max_depth': 8, 'min_samples_leaf': 3, 'min_samples_split': 7, 'max_leaf_nodes': 11, 'max_samples': None, 'max_features': 21}",89,1,1.7600001228856854e-05
0.15535831118257293,"{'n_estimators': 300, 'max_depth': None, 'min_samples_leaf': 2, 'min_samples_split': 6, 'max_leaf_nodes': 8, 'max_samples': None, 'max_features': 21}",90,1,1.650000012887176e-05
0.16018099141754705,"{'n_estimators': 100, 'max_depth': 8, 'min_samples_leaf': 2, 'min_samples_split': 8, 'max_leaf_nodes': 7, 'max_samples': None, 'max_features': 21}",91,1,9.499999578110874e-06
0.1534233679465411,"{'n_estimators': 500, 'max_depth': 10, 'min_samples_leaf': 4, 'min_samples_split': 4, 'max_leaf_nodes': 9, 'max_samples': None, 'max_features': 21}",92,1,9.100000170292333e-06
0.14878458206794054,"{'n_estimators': 900, 'max_depth': None, 'min_samples_leaf': 1, 'min_samples_split': 6, 'max_leaf_nodes': 11, 'max_samples': None, 'max_features': 21}",93,1,1.700000029813964e-05
0.1492052720786179,"{'n_estimators': 700, 'max_depth': 7, 'min_samples_leaf': 2, 'min_samples_split': 5, 'max_leaf_nodes': 11, 'max_samples': None, 'max_features': 21}",94,1,9.800000043469481e-06
0.16250137924083563,"{'n_estimators': 500, 'max_depth': 8, 'min_samples_leaf': 2, 'min_samples_split': 3, 'max_leaf_nodes': 6, 'max_samples': None, 'max_features': 21}",95,1,1.0300000212737359e-05
0.1652727811387611,"{'n_estimators': 900, 'max_depth': 8, 'min_samples_leaf': 3, 'min_samples_split': 2, 'max_leaf_nodes': 5, 'max_samples': None, 'max_features': 21}",96,1,1.1000000085914508e-05
0.1505344503519329,"{'n_estimators': 300, 'max_depth': None, 'min_samples_leaf': 2, 'min_samples_split': 6, 'max_leaf_nodes': 10, 'max_samples': None, 'max_features': 21}",97,1,1.1800000720540993e-05
0.1490374815777331,"{'n_estimators': 100, 'max_depth': 8, 'min_samples_leaf': 2, 'min_samples_split': 6, 'max_leaf_nodes': 11, 'max_samples': None, 'max_features': 21}",98,1,9.199999112752266e-06
