loss,params,iteration,estimators,train_time
0.07130879919704947,"{'num_leaves': 80, 'colsample_bytree': 0.9438127819977962, 'learning_rate': 0.01, 'max_depth': 12, 'boosting_type': 'gbdt', 'objective': 'binary', 'metric': 'auc', 'min_data': 50, 'n_estimators': 500}",1,500,149.00720189999993
0.040232932660389964,"{'num_leaves': 118, 'colsample_bytree': 0.7173442278100914, 'learning_rate': 0.08, 'max_depth': 10, 'boosting_type': 'gbdt', 'objective': 'binary', 'metric': 'auc', 'min_data': 50, 'n_estimators': 500}",2,500,101.99920580000025
0.04144773006603586,"{'num_leaves': 88, 'colsample_bytree': 0.5541666648774535, 'learning_rate': 0.08, 'max_depth': 10, 'boosting_type': 'gbdt', 'objective': 'binary', 'metric': 'auc', 'min_data': 50, 'n_estimators': 500}",3,500,108.56913930000019
0.04018859170174771,"{'num_leaves': 112, 'colsample_bytree': 0.6856469106799714, 'learning_rate': 0.08, 'max_depth': 10, 'boosting_type': 'gbdt', 'objective': 'binary', 'metric': 'auc', 'min_data': 50, 'n_estimators': 500}",4,500,94.25924190000023
0.045998556263417645,"{'num_leaves': 68, 'colsample_bytree': 0.9967553823946265, 'learning_rate': 0.05, 'max_depth': 12, 'boosting_type': 'gbdt', 'objective': 'binary', 'metric': 'auc', 'min_data': 50, 'n_estimators': 500}",5,500,129.39969810000002
0.06975933023592429,"{'num_leaves': 102, 'colsample_bytree': 0.5923610628892327, 'learning_rate': 0.01, 'max_depth': 11, 'boosting_type': 'gbdt', 'objective': 'binary', 'metric': 'auc', 'min_data': 50, 'n_estimators': 500}",6,500,157.08664360000012
0.07205809135296626,"{'num_leaves': 98, 'colsample_bytree': 0.7447711652783473, 'learning_rate': 0.01, 'max_depth': 10, 'boosting_type': 'gbdt', 'objective': 'binary', 'metric': 'auc', 'min_data': 50, 'n_estimators': 500}",7,500,121.06880969999975
0.0718550656250091,"{'num_leaves': 82, 'colsample_bytree': 0.5428820392324316, 'learning_rate': 0.01, 'max_depth': 11, 'boosting_type': 'gbdt', 'objective': 'binary', 'metric': 'auc', 'min_data': 50, 'n_estimators': 500}",8,500,142.03278480000017
0.04684770503021163,"{'num_leaves': 68, 'colsample_bytree': 0.9339776598857215, 'learning_rate': 0.05, 'max_depth': 11, 'boosting_type': 'gbdt', 'objective': 'binary', 'metric': 'auc', 'min_data': 50, 'n_estimators': 500}",9,500,112.88075029999982
0.0464691012934515,"{'num_leaves': 74, 'colsample_bytree': 0.944294385025553, 'learning_rate': 0.05, 'max_depth': 11, 'boosting_type': 'gbdt', 'objective': 'binary', 'metric': 'auc', 'min_data': 50, 'n_estimators': 500}",10,500,115.91512379999995
0.0435553774659696,"{'num_leaves': 110, 'colsample_bytree': 0.5318886754093546, 'learning_rate': 0.05, 'max_depth': 11, 'boosting_type': 'gbdt', 'objective': 'binary', 'metric': 'auc', 'min_data': 50, 'n_estimators': 500}",11,500,147.2861015000003
0.0424900299310037,"{'num_leaves': 64, 'colsample_bytree': 0.7682111453458774, 'learning_rate': 0.08, 'max_depth': 11, 'boosting_type': 'gbdt', 'objective': 'binary', 'metric': 'auc', 'min_data': 50, 'n_estimators': 500}",12,500,104.10918390000006
0.07067666783743976,"{'num_leaves': 116, 'colsample_bytree': 0.7375862600573335, 'learning_rate': 0.01, 'max_depth': 10, 'boosting_type': 'gbdt', 'objective': 'binary', 'metric': 'auc', 'min_data': 50, 'n_estimators': 500}",13,500,149.36562739999954
0.04140262143001505,"{'num_leaves': 84, 'colsample_bytree': 0.8764565019079, 'learning_rate': 0.08, 'max_depth': 10, 'boosting_type': 'gbdt', 'objective': 'binary', 'metric': 'auc', 'min_data': 50, 'n_estimators': 500}",14,500,126.45703299999968
0.0448197117483341,"{'num_leaves': 114, 'colsample_bytree': 0.8184976376612102, 'learning_rate': 0.05, 'max_depth': 10, 'boosting_type': 'gbdt', 'objective': 'binary', 'metric': 'auc', 'min_data': 50, 'n_estimators': 500}",15,500,146.96537220000027
0.03959860995052311,"{'num_leaves': 104, 'colsample_bytree': 0.8200639904876807, 'learning_rate': 0.08, 'max_depth': 11, 'boosting_type': 'gbdt', 'objective': 'binary', 'metric': 'auc', 'min_data': 50, 'n_estimators': 500}",16,500,205.92641279999953
0.06894255511812986,"{'num_leaves': 98, 'colsample_bytree': 0.9379454184193323, 'learning_rate': 0.01, 'max_depth': 12, 'boosting_type': 'gbdt', 'objective': 'binary', 'metric': 'auc', 'min_data': 50, 'n_estimators': 500}",17,500,182.06462910000027
0.043196943693327605,"{'num_leaves': 116, 'colsample_bytree': 0.7293631980788033, 'learning_rate': 0.05, 'max_depth': 11, 'boosting_type': 'gbdt', 'objective': 'binary', 'metric': 'auc', 'min_data': 50, 'n_estimators': 500}",18,500,139.39192279999952
0.04755080859718508,"{'num_leaves': 58, 'colsample_bytree': 0.7064481857886864, 'learning_rate': 0.05, 'max_depth': 12, 'boosting_type': 'gbdt', 'objective': 'binary', 'metric': 'auc', 'min_data': 50, 'n_estimators': 500}",19,500,105.9907960999999
0.04632811755973698,"{'num_leaves': 80, 'colsample_bytree': 0.6166936272273369, 'learning_rate': 0.05, 'max_depth': 10, 'boosting_type': 'gbdt', 'objective': 'binary', 'metric': 'auc', 'min_data': 50, 'n_estimators': 500}",20,500,108.69472769999993
0.04028032481132504,"{'num_leaves': 126, 'colsample_bytree': 0.6538263163148398, 'learning_rate': 0.08, 'max_depth': 10, 'boosting_type': 'gbdt', 'objective': 'binary', 'metric': 'auc', 'min_data': 50, 'n_estimators': 500}",21,500,107.54326540000056
0.03873029310364695,"{'num_leaves': 124, 'colsample_bytree': 0.8226158667508858, 'learning_rate': 0.08, 'max_depth': 11, 'boosting_type': 'gbdt', 'objective': 'binary', 'metric': 'auc', 'min_data': 50, 'n_estimators': 500}",22,500,134.94151169999986
0.039145426573293896,"{'num_leaves': 126, 'colsample_bytree': 0.8106303619451354, 'learning_rate': 0.08, 'max_depth': 11, 'boosting_type': 'gbdt', 'objective': 'binary', 'metric': 'auc', 'min_data': 50, 'n_estimators': 500}",23,500,130.65835909999987
0.03912820154104002,"{'num_leaves': 128, 'colsample_bytree': 0.840472262570202, 'learning_rate': 0.08, 'max_depth': 11, 'boosting_type': 'gbdt', 'objective': 'binary', 'metric': 'auc', 'min_data': 50, 'n_estimators': 500}",24,500,138.79967380000016
0.03886719340090983,"{'num_leaves': 126, 'colsample_bytree': 0.8719006008555535, 'learning_rate': 0.08, 'max_depth': 11, 'boosting_type': 'gbdt', 'objective': 'binary', 'metric': 'auc', 'min_data': 50, 'n_estimators': 500}",25,500,147.65472000000045
0.038806720374417014,"{'num_leaves': 122, 'colsample_bytree': 0.8738548755694637, 'learning_rate': 0.08, 'max_depth': 11, 'boosting_type': 'gbdt', 'objective': 'binary', 'metric': 'auc', 'min_data': 50, 'n_estimators': 500}",26,500,143.09528249999948
0.038824366111223085,"{'num_leaves': 120, 'colsample_bytree': 0.9867127822665632, 'learning_rate': 0.08, 'max_depth': 11, 'boosting_type': 'gbdt', 'objective': 'binary', 'metric': 'auc', 'min_data': 50, 'n_estimators': 500}",27,500,150.5255629000003
0.03933275286514315,"{'num_leaves': 106, 'colsample_bytree': 0.7779035230227708, 'learning_rate': 0.08, 'max_depth': 11, 'boosting_type': 'gbdt', 'objective': 'binary', 'metric': 'auc', 'min_data': 50, 'n_estimators': 500}",28,499,152.25360499999988
0.03963174368687061,"{'num_leaves': 94, 'colsample_bytree': 0.8963901497270349, 'learning_rate': 0.08, 'max_depth': 12, 'boosting_type': 'gbdt', 'objective': 'binary', 'metric': 'auc', 'min_data': 50, 'n_estimators': 500}",29,499,143.87106310000036
0.03914410807655333,"{'num_leaves': 122, 'colsample_bytree': 0.9021391057899639, 'learning_rate': 0.08, 'max_depth': 11, 'boosting_type': 'gbdt', 'objective': 'binary', 'metric': 'auc', 'min_data': 50, 'n_estimators': 500}",30,500,145.60475139999926
0.03899921005564033,"{'num_leaves': 122, 'colsample_bytree': 0.9736682760635442, 'learning_rate': 0.08, 'max_depth': 11, 'boosting_type': 'gbdt', 'objective': 'binary', 'metric': 'auc', 'min_data': 50, 'n_estimators': 500}",31,500,143.97389050000038
0.03906633411750049,"{'num_leaves': 108, 'colsample_bytree': 0.782388522234015, 'learning_rate': 0.08, 'max_depth': 12, 'boosting_type': 'gbdt', 'objective': 'binary', 'metric': 'auc', 'min_data': 50, 'n_estimators': 500}",32,500,138.9512980999998
0.04027289959283875,"{'num_leaves': 90, 'colsample_bytree': 0.862410073459764, 'learning_rate': 0.08, 'max_depth': 11, 'boosting_type': 'gbdt', 'objective': 'binary', 'metric': 'auc', 'min_data': 50, 'n_estimators': 500}",33,500,128.9465984999997
0.03917419712634851,"{'num_leaves': 112, 'colsample_bytree': 0.6932619750035559, 'learning_rate': 0.08, 'max_depth': 11, 'boosting_type': 'gbdt', 'objective': 'binary', 'metric': 'auc', 'min_data': 50, 'n_estimators': 500}",34,500,142.19596339999953
0.03931176534630243,"{'num_leaves': 100, 'colsample_bytree': 0.9040119992127015, 'learning_rate': 0.08, 'max_depth': 12, 'boosting_type': 'gbdt', 'objective': 'binary', 'metric': 'auc', 'min_data': 50, 'n_estimators': 500}",35,500,144.56277330000012
0.07092905044996167,"{'num_leaves': 90, 'colsample_bytree': 0.6536275421879834, 'learning_rate': 0.01, 'max_depth': 11, 'boosting_type': 'gbdt', 'objective': 'binary', 'metric': 'auc', 'min_data': 50, 'n_estimators': 500}",36,500,161.76059989999976
0.044354854904074426,"{'num_leaves': 52, 'colsample_bytree': 0.8455309541937897, 'learning_rate': 0.08, 'max_depth': 11, 'boosting_type': 'gbdt', 'objective': 'binary', 'metric': 'auc', 'min_data': 50, 'n_estimators': 500}",37,500,108.84069799999997
0.03878397196848171,"{'num_leaves': 120, 'colsample_bytree': 0.963374973047282, 'learning_rate': 0.08, 'max_depth': 11, 'boosting_type': 'gbdt', 'objective': 'binary', 'metric': 'auc', 'min_data': 50, 'n_estimators': 500}",38,500,157.14089820000027
0.06930774835514708,"{'num_leaves': 94, 'colsample_bytree': 0.9628233604765922, 'learning_rate': 0.01, 'max_depth': 12, 'boosting_type': 'gbdt', 'objective': 'binary', 'metric': 'auc', 'min_data': 50, 'n_estimators': 500}",39,500,183.55873319999955
0.0411713987384571,"{'num_leaves': 76, 'colsample_bytree': 0.9941596835319859, 'learning_rate': 0.08, 'max_depth': 11, 'boosting_type': 'gbdt', 'objective': 'binary', 'metric': 'auc', 'min_data': 50, 'n_estimators': 500}",40,500,132.8550878999995
0.06851769231357074,"{'num_leaves': 118, 'colsample_bytree': 0.9584936825823754, 'learning_rate': 0.01, 'max_depth': 11, 'boosting_type': 'gbdt', 'objective': 'binary', 'metric': 'auc', 'min_data': 50, 'n_estimators': 500}",41,500,181.9319427999999
0.0409948698072512,"{'num_leaves': 110, 'colsample_bytree': 0.5065375751603536, 'learning_rate': 0.08, 'max_depth': 10, 'boosting_type': 'gbdt', 'objective': 'binary', 'metric': 'auc', 'min_data': 50, 'n_estimators': 500}",42,500,127.72487960000035
0.04044542315647892,"{'num_leaves': 86, 'colsample_bytree': 0.7965319874007396, 'learning_rate': 0.08, 'max_depth': 11, 'boosting_type': 'gbdt', 'objective': 'binary', 'metric': 'auc', 'min_data': 50, 'n_estimators': 500}",43,500,105.54678409999906
0.04402950499043634,"{'num_leaves': 96, 'colsample_bytree': 0.9160736207881313, 'learning_rate': 0.05, 'max_depth': 11, 'boosting_type': 'gbdt', 'objective': 'binary', 'metric': 'auc', 'min_data': 50, 'n_estimators': 500}",44,500,129.70088980000037
0.07161293714379935,"{'num_leaves': 104, 'colsample_bytree': 0.7547346491803718, 'learning_rate': 0.01, 'max_depth': 10, 'boosting_type': 'gbdt', 'objective': 'binary', 'metric': 'auc', 'min_data': 50, 'n_estimators': 500}",45,500,135.2391664000006
0.04160332352432483,"{'num_leaves': 72, 'colsample_bytree': 0.5802686903417933, 'learning_rate': 0.08, 'max_depth': 12, 'boosting_type': 'gbdt', 'objective': 'binary', 'metric': 'auc', 'min_data': 50, 'n_estimators': 500}",46,500,119.1324065000008
0.04319595482077243,"{'num_leaves': 114, 'colsample_bytree': 0.9248445089792349, 'learning_rate': 0.05, 'max_depth': 11, 'boosting_type': 'gbdt', 'objective': 'binary', 'metric': 'auc', 'min_data': 50, 'n_estimators': 500}",47,500,130.02168650000021
0.03912820154104002,"{'num_leaves': 128, 'colsample_bytree': 0.8394465590384629, 'learning_rate': 0.08, 'max_depth': 11, 'boosting_type': 'gbdt', 'objective': 'binary', 'metric': 'auc', 'min_data': 50, 'n_estimators': 500}",48,500,132.98773959999926
0.07024519411624641,"{'num_leaves': 124, 'colsample_bytree': 0.6682615872475508, 'learning_rate': 0.01, 'max_depth': 10, 'boosting_type': 'gbdt', 'objective': 'binary', 'metric': 'auc', 'min_data': 50, 'n_estimators': 500}",49,500,131.93792329999997
0.042751434921303955,"{'num_leaves': 62, 'colsample_bytree': 0.6194607758162962, 'learning_rate': 0.08, 'max_depth': 11, 'boosting_type': 'gbdt', 'objective': 'binary', 'metric': 'auc', 'min_data': 50, 'n_estimators': 500}",50,500,77.7066603000003
