loss,params,iteration,estimators,train_time
0.044534526107939953,"{'learning_rate': 0.08, 'depth': 12, 'l2_leaf_reg': 4.757045060311482, 'colsample_bylevel': 0.758, 'max_leaves': 80.0, 'task_type': 'CPU', 'loss_function': 'Logloss', 'eval_metric': 'AUC', 'custom_metric': ['AUC'], 'iterations': 500, 'random_seed': 25, 'metric_period': 20, 'boosting_type': 'Plain', 'min_data_in_leaf': 50, 'grow_policy': 'Lossguide'}",1,26,527.2416092999999
0.08226634201460215,"{'learning_rate': 0.01, 'depth': 11, 'l2_leaf_reg': 9.84236103975919, 'colsample_bylevel': 0.876, 'max_leaves': 118.0, 'task_type': 'CPU', 'loss_function': 'Logloss', 'eval_metric': 'AUC', 'custom_metric': ['AUC'], 'iterations': 500, 'random_seed': 25, 'metric_period': 20, 'boosting_type': 'Plain', 'min_data_in_leaf': 50, 'grow_policy': 'Lossguide'}",2,26,782.5741681
0.08629455123501817,"{'learning_rate': 0.01, 'depth': 10, 'l2_leaf_reg': 2.238298139907482, 'colsample_bylevel': 0.632, 'max_leaves': 88.0, 'task_type': 'CPU', 'loss_function': 'Logloss', 'eval_metric': 'AUC', 'custom_metric': ['AUC'], 'iterations': 500, 'random_seed': 25, 'metric_period': 20, 'boosting_type': 'Plain', 'min_data_in_leaf': 50, 'grow_policy': 'Lossguide'}",3,26,556.9638479
0.08349246808303235,"{'learning_rate': 0.01, 'depth': 10, 'l2_leaf_reg': 2.2028701181832275, 'colsample_bylevel': 0.781, 'max_leaves': 112.0, 'task_type': 'CPU', 'loss_function': 'Logloss', 'eval_metric': 'AUC', 'custom_metric': ['AUC'], 'iterations': 500, 'random_seed': 25, 'metric_period': 20, 'boosting_type': 'Plain', 'min_data_in_leaf': 50, 'grow_policy': 'Lossguide'}",4,26,683.9436875000001
0.048006275489328676,"{'learning_rate': 0.08, 'depth': 10, 'l2_leaf_reg': 4.218972347241616, 'colsample_bylevel': 0.403, 'max_leaves': 68.0, 'task_type': 'CPU', 'loss_function': 'Logloss', 'eval_metric': 'AUC', 'custom_metric': ['AUC'], 'iterations': 500, 'random_seed': 25, 'metric_period': 20, 'boosting_type': 'Plain', 'min_data_in_leaf': 50, 'grow_policy': 'Lossguide'}",5,26,342.66728950000015
0.04910699907253291,"{'learning_rate': 0.05, 'depth': 11, 'l2_leaf_reg': 8.811236662138247, 'colsample_bylevel': 0.956, 'max_leaves': 102.0, 'task_type': 'CPU', 'loss_function': 'Logloss', 'eval_metric': 'AUC', 'custom_metric': ['AUC'], 'iterations': 500, 'random_seed': 25, 'metric_period': 20, 'boosting_type': 'Plain', 'min_data_in_leaf': 50, 'grow_policy': 'Lossguide'}",6,26,770.9133959999999
0.08471305776630011,"{'learning_rate': 0.01, 'depth': 12, 'l2_leaf_reg': 8.506165783151097, 'colsample_bylevel': 0.618, 'max_leaves': 98.0, 'task_type': 'CPU', 'loss_function': 'Logloss', 'eval_metric': 'AUC', 'custom_metric': ['AUC'], 'iterations': 500, 'random_seed': 25, 'metric_period': 20, 'boosting_type': 'Plain', 'min_data_in_leaf': 50, 'grow_policy': 'Lossguide'}",7,26,1226.9639957
0.05060291169360276,"{'learning_rate': 0.05, 'depth': 12, 'l2_leaf_reg': 9.548499336629186, 'colsample_bylevel': 0.901, 'max_leaves': 82.0, 'task_type': 'CPU', 'loss_function': 'Logloss', 'eval_metric': 'AUC', 'custom_metric': ['AUC'], 'iterations': 500, 'random_seed': 25, 'metric_period': 20, 'boosting_type': 'Plain', 'min_data_in_leaf': 50, 'grow_policy': 'Lossguide'}",8,26,1434.440334
0.054217245220867905,"{'learning_rate': 0.05, 'depth': 10, 'l2_leaf_reg': 7.228076985564812, 'colsample_bylevel': 0.875, 'max_leaves': 68.0, 'task_type': 'CPU', 'loss_function': 'Logloss', 'eval_metric': 'AUC', 'custom_metric': ['AUC'], 'iterations': 500, 'random_seed': 25, 'metric_period': 20, 'boosting_type': 'Plain', 'min_data_in_leaf': 50, 'grow_policy': 'Lossguide'}",9,26,1103.3561286000004
