loss,params,iteration,estimators,train_time
0.062205230196317074,"{'learning_rate': 0.30946620218883536, 'depth': 8, 'l2_leaf_reg': 9.998950188879203, 'task_type': 'GPU', 'loss_function': 'Logloss', 'eval_metric': 'AUC', 'custom_metric': ['AUC'], 'iterations': 2000, 'random_seed': 25}",1,726,1305.0648248
0.08245937029520667,"{'learning_rate': 0.6932917098217839, 'depth': 4, 'l2_leaf_reg': 7.406633323746629, 'task_type': 'GPU', 'loss_function': 'Logloss', 'eval_metric': 'AUC', 'custom_metric': ['AUC'], 'iterations': 2000, 'random_seed': 25}",2,389,209.06062109999993
0.07542390624682105,"{'learning_rate': 0.19574485958548016, 'depth': 8, 'l2_leaf_reg': 9.998950188879203, 'task_type': 'GPU', 'loss_function': 'Logloss', 'eval_metric': 'AUC', 'custom_metric': ['AUC'], 'iterations': 2000, 'random_seed': 25, 'gpu_ram_part': 0.8}",1,1524,2582.6088158999996
0.04675277109631004,"{'learning_rate': 0.19574485958548016, 'depth': 8, 'l2_leaf_reg': 9.998950188879203, 'task_type': 'CPU', 'loss_function': 'Logloss', 'eval_metric': 'AUC', 'custom_metric': ['AUC'], 'iterations': 2000, 'random_seed': 25, 'gpu_ram_part': 0.8}",1,853,2739.2187416
0.05529330771043106,"{'learning_rate': 0.43381384533249884, 'depth': 4, 'l2_leaf_reg': 7.406633323746629, 'task_type': 'CPU', 'loss_function': 'Logloss', 'eval_metric': 'AUC', 'custom_metric': ['AUC'], 'iterations': 2000, 'random_seed': 25, 'gpu_ram_part': 0.8}",2,1282,1570.5178671000003
0.04583889454873846,"{'learning_rate': 0.2533366591146415, 'depth': 11, 'l2_leaf_reg': 1.7310459485901055, 'task_type': 'CPU', 'loss_function': 'Logloss', 'eval_metric': 'AUC', 'custom_metric': ['AUC'], 'iterations': 2000, 'random_seed': 25, 'gpu_ram_part': 0.8}",3,515,5837.4938114999995
0.048593733013240326,"{'learning_rate': 0.39443920395693627, 'depth': 8, 'l2_leaf_reg': 2.413138793430254, 'task_type': 'CPU', 'loss_function': 'Logloss', 'eval_metric': 'AUC', 'custom_metric': ['AUC'], 'iterations': 2000, 'random_seed': 25, 'gpu_ram_part': 0.8}",4,679,2057.849702899999
0.056685239081149086,"{'learning_rate': 0.12814187931354967, 'depth': 4, 'l2_leaf_reg': 4.729847961805554, 'task_type': 'CPU', 'loss_function': 'Logloss', 'eval_metric': 'AUC', 'custom_metric': ['AUC'], 'iterations': 2000, 'random_seed': 25, 'gpu_ram_part': 0.8}",5,2000,2252.2316932999984
0.06710712741778135,"{'learning_rate': 0.33330764085727693, 'depth': 2, 'l2_leaf_reg': 3.8617869899514066, 'task_type': 'CPU', 'loss_function': 'Logloss', 'eval_metric': 'AUC', 'custom_metric': ['AUC'], 'iterations': 2000, 'random_seed': 25, 'gpu_ram_part': 0.8}",6,2000,1300.1793939
0.0523031175777362,"{'learning_rate': 0.30536249384263414, 'depth': 4, 'l2_leaf_reg': 7.536857780115051, 'task_type': 'CPU', 'loss_function': 'Logloss', 'eval_metric': 'AUC', 'custom_metric': ['AUC'], 'iterations': 2000, 'random_seed': 25, 'gpu_ram_part': 0.8}",7,2000,2260.239004000001
0.0468568759557314,"{'learning_rate': 0.20998913794766227, 'depth': 6, 'l2_leaf_reg': 5.794624898944045, 'task_type': 'CPU', 'loss_function': 'Logloss', 'eval_metric': 'AUC', 'custom_metric': ['AUC'], 'iterations': 2000, 'random_seed': 25, 'gpu_ram_part': 0.8}",8,1473,2627.4400768999985
0.051001095540676555,"{'learning_rate': 0.12583968038426788, 'depth': 5, 'l2_leaf_reg': 3.943288748098504, 'task_type': 'CPU', 'loss_function': 'Logloss', 'eval_metric': 'AUC', 'custom_metric': ['AUC'], 'iterations': 2000, 'random_seed': 25, 'gpu_ram_part': 0.8}",9,1999,2863.629342299999
0.04102787559736909,"{'learning_rate': 0.16180955249010867, 'depth': 11, 'l2_leaf_reg': 7.1267484021276895, 'task_type': 'CPU', 'loss_function': 'Logloss', 'eval_metric': 'AUC', 'custom_metric': ['AUC'], 'iterations': 2000, 'random_seed': 25, 'gpu_ram_part': 0.8}",10,1140,13137.690035800002
0.05767481425655474,"{'learning_rate': 0.3850728502416194, 'depth': 3, 'l2_leaf_reg': 6.443931585864768, 'task_type': 'CPU', 'loss_function': 'Logloss', 'eval_metric': 'AUC', 'custom_metric': ['AUC'], 'iterations': 2000, 'random_seed': 25, 'gpu_ram_part': 0.8}",11,1883,1655.831147500001
0.08229545303474284,"{'learning_rate': 0.09767123635422983, 'depth': 2, 'l2_leaf_reg': 5.8720783647075745, 'task_type': 'CPU', 'loss_function': 'Logloss', 'eval_metric': 'AUC', 'custom_metric': ['AUC'], 'iterations': 2000, 'random_seed': 25, 'gpu_ram_part': 0.8}",12,2000,1322.0020621000003
0.5,"{'learning_rate': 0.4243613384332028, 'depth': 0, 'l2_leaf_reg': 7.672016145413969, 'task_type': 'CPU', 'loss_function': 'Logloss', 'eval_metric': 'AUC', 'custom_metric': ['AUC'], 'iterations': 2000, 'random_seed': 25, 'gpu_ram_part': 0.8}",13,1,3.3126518999997643
0.0458810560843147,"{'learning_rate': 0.22690113739518994, 'depth': 7, 'l2_leaf_reg': 6.392545546617818, 'task_type': 'CPU', 'loss_function': 'Logloss', 'eval_metric': 'AUC', 'custom_metric': ['AUC'], 'iterations': 2000, 'random_seed': 25, 'gpu_ram_part': 0.8}",14,1225,2763.791167299998
0.05054096728546753,"{'learning_rate': 0.4104771630306502, 'depth': 6, 'l2_leaf_reg': 4.834336955838191, 'task_type': 'CPU', 'loss_function': 'Logloss', 'eval_metric': 'AUC', 'custom_metric': ['AUC'], 'iterations': 2000, 'random_seed': 25, 'gpu_ram_part': 0.8}",15,907,1654.390389100001
0.047974915651556316,"{'learning_rate': 0.343220321662896, 'depth': 6, 'l2_leaf_reg': 8.61317872490714, 'task_type': 'CPU', 'loss_function': 'Logloss', 'eval_metric': 'AUC', 'custom_metric': ['AUC'], 'iterations': 2000, 'random_seed': 25, 'gpu_ram_part': 0.8}",16,1301,2355.7751277999996
0.054417205660760914,"{'learning_rate': 0.3118520989258888, 'depth': 4, 'l2_leaf_reg': 6.664325593733546, 'task_type': 'CPU', 'loss_function': 'Logloss', 'eval_metric': 'AUC', 'custom_metric': ['AUC'], 'iterations': 2000, 'random_seed': 25, 'gpu_ram_part': 0.8}",17,1434,1698.0194357
0.054889813010531974,"{'learning_rate': 0.42800322991221146, 'depth': 4, 'l2_leaf_reg': 7.96147337715696, 'task_type': 'CPU', 'loss_function': 'Logloss', 'eval_metric': 'AUC', 'custom_metric': ['AUC'], 'iterations': 2000, 'random_seed': 25, 'gpu_ram_part': 0.8}",18,1312,1552.5467779000028
0.040414306199685335,"{'learning_rate': 0.06080777245198943, 'depth': 11, 'l2_leaf_reg': 2.4446577267125287, 'task_type': 'CPU', 'loss_function': 'Logloss', 'eval_metric': 'AUC', 'custom_metric': ['AUC'], 'iterations': 2000, 'random_seed': 25, 'gpu_ram_part': 0.8}",19,1242,14594.788753599998
0.05949922773824301,"{'learning_rate': 0.20211573630954702, 'depth': 3, 'l2_leaf_reg': 1.4205059820092698, 'task_type': 'CPU', 'loss_function': 'Logloss', 'eval_metric': 'AUC', 'custom_metric': ['AUC'], 'iterations': 2000, 'random_seed': 25, 'gpu_ram_part': 0.8}",20,2000,1823.5584789000059
0.045331871831742365,"{'learning_rate': 0.016660851316294578, 'depth': 11, 'l2_leaf_reg': 2.6727639676922506, 'task_type': 'CPU', 'loss_function': 'Logloss', 'eval_metric': 'AUC', 'custom_metric': ['AUC'], 'iterations': 2000, 'random_seed': 25, 'gpu_ram_part': 0.8}",21,2000,24577.2726692
